year,name,count
1996,AMD K5,4300000
1997,AMD K6,8800000
1999,AMD K6-III,21300000
1999,AMD K7,22000000
2003,AMD K8,105900000
2007,AMD K10 2M L3,463000000
2008,AMD K10 6M L3,758000000
2009,AMD Opteron 2400,904000000
2012,AMD Bulldozer,1200000000
2017,AMD Ryzen,4800000000
