* import technology model and gate design

.INCLUDE model.spi
.INCLUDE smallest_inv.spi

* pair of smallest inverter instantiation

x1 A Q1 1 0 smallest_inv
x2 Q1 Q2 1 0 smallest_inv

*
* 5v entre vdd y vss
*
VCC 1 0 DC 5V

*
* Input wave
*
Va A 0 pwl(0ns 0 15s 5)

.TRAN 1000us 15s

.END
