* import technology model and gate design

.INCLUDE model.spi
.INCLUDE 6T_SRAM_array.spi

* Instantiation

x1 WL BL BL_b 1 0 6T_SRAM_array PARAMS: nrows=255 ncols=32

*
* 5v between Vdd and Vss
*
VCC 1 0 DC 5V

* Hold
Vwl WL 0 DC 0V
.IC V(BL) = 0
.IC V(BL_b) = 0

* Read
*Vwl WL 0 DC 5V
*.IC V(BL) = 5
*.IC V(BL_b) = 5

* Write
*Vwl WL 0 DC 5V
*Vbl BL 0 DC 5V
*Vbl_b BL_b 0 DC 0V

* Initial cell value
.IC V(x1.x1.x1.Q) = 0
.IC V(x1.x1.x1.Q_b) = 5

* Precharge other cells to 1
.IC V(x1.x1.x2.Q) = 5
.IC V(x1.x1.x2.Q_b) = 0
.IC V(x1.x2.x1.Q) = 5
.IC V(x1.x2.x1.Q_b) = 0
.IC V(x1.x2.x2.Q) = 5
.IC V(x1.x2.x2.Q_b) = 0

.TRAN 1ns 40ns
.MEASURE TRAN iavg AVG i(vcc) FROM=0ns TO=40ns
.MEASURE TRAN power PARAM='iavg*5'

* plot WL BL BL_b x1.x1.x1.Q i(vcc)

.END
