* import technology model and gate design

.INCLUDE model.spi
.INCLUDE 8T_SRAM_cell_SNM.spi

* Instantiation

x1 WWL RWL WBL WBLB RBL 1 0 8T_SRAM_cell_SNM

*
* 5v between Vdd and Vss
*
VCC 1 0 DC 5V

*
* Input wave
*
* RWL=1, Read SNM
* RWL=0, Hold SNM
Vwwl WWL 0 DC 0V
Vrwl RWL 0 DC 5V

* Set write bitline to 0
.IC V(WBL) = 0V
.IC V(WBLB) = 0V

* Precharge read bitline
.IC V(RBL) = 5V

* Initial cell value
.IC V(x1.Q) = 5V
.IC V(x1.QB) = 0V

EVNOISER x1.Q x1.QN VOL='V(x1.QB)-V(x1.QBN)'
VVNOISE x1.QB x1.QBN DC 0V

.TRAN 0.01n 30n
.MEASURE TRAN SNM FIND V(x1.QBN) WHEN V(x1.Q) = 0.001V TD=10ns

.control

destroy all

* No flip at: 0.68
* Flip at 0.68195
let testing_noise=0.68195

alter vvnoise testing_noise
run
PLOT V(x1.Q) V(x1.QN) V(x1.QB) V(x1.QBN)

*PLOT V(x1.Q) V(x1.QN) V(x1.QBN) V(x1.QB) V(RBL)
*PLOT V(x1.Q) V(x1.QB) V(RBL) V(RWL) V(x1.N1)

.endc

.END
