* import technology model and gate design

.INCLUDE model.spi
.INCLUDE 256x32_8T_SRAM_array.spi

* Instantiation

x1 WWL RWL WBL WBL_b RBL 1 0 256x32_8T_SRAM_array

*
* 5v between Vdd and Vss
*
VCC 1 0 DC 5V

*
* Input wave
*
Vwwl WWL 0 0
Vrwl RWL 0 pwl(0ns 0 0.5ns 5)

* Set write bitline to 0
.IC V(WBL) = 0
.IC V(WBL_b) = 0

* Precharge read bitline
.IC V(RBL) = 5

* Initial cell value
.IC V(x1.x1.x1.Q) = 0
.IC V(x1.x1.x1.Q_b) = 5

.control
TRAN 0.03ns 20ns

LET RBL_diff=abs(V(RBL, 1))
MEAS TRAN BL_delay WHEN RBL_diff=0.5

PLOT RWL RBL x1.x1.x1.Q RBL_diff
.endc

.END
