* import technology model and gate design

.INCLUDE model.spi
.INCLUDE 256x32_6T_SRAM_array.spi

* Instantiation

x1 WL BL BL_b 1 0 256x32_6T_SRAM_array

*
* 5v between Vdd and Vss
*
VCC 1 0 DC 5V

* Read delay
Vwl WL 0 DC 5V
.IC V(BL) = 5
.IC V(BL_b) = 5

* Hold
*Vwl WL 0 DC 0V
*.IC V(WL) = 0
*.IC V(BL) = 0
*.IC V(BL_b) = 0

* Initial cell value
.IC V(x1.x1.x1.Q) = 5
.IC V(x1.x1.x1.Q_b) = 0

* Precharge other cells
*.IC V(x1.x1.x1.Q) = 5
*.IC V(x1.x1.x1.Q_b) = 0

.control
TRAN 0.03ns 40ns

LET BL_diff=abs(V(BL, BL_b))
MEAS TRAN BL_delay WHEN BL_diff=0.5

PLOT WL BL BL_b x1.x1.x1.Q BL_diff
.endc


*.TRAN 1ns 40ns
*.MEASURE TRAN iavg AVG i(vcc) FROM=0ns TO=40ns
*.MEASURE TRAN power PARAM='iavg*5'
*.MEASURE TRAN BL_diff PARAM='abs(V(BL, BL_b))'
*.LET BL_diff=abs(V(BL, BL_b))
*.MEASURE TRAN BL_delay WHEN BL_diff=0.5
*PLOT WL BL BL_b x1.x1.x1.Q iavg power

.END
